// Jest Snapshot v1, https://goo.gl/fbAQLP

exports[`should render layouts/LoadingLogoutPage correctly 1`] = `
<div
  className="loader"
>
  <img
    className="loader__image"
    src="/images/smile-goodbye.gif"
  />
</div>
`;
